{
	"forge_marker": 1,
	"defaults": {
		"model": "heroesexpansion:vibranium_shield.obj"
	},

	"variants": {
		"inventory": [{
				"transform": {
					"thirdperson_lefthand": {
						"rotation": [{
								"x": 90
							},{
								"y": 0
							},{
								"z": -90
							}],

						"translation": [0.17,-0.12,0.24],

						"scale": 0.001
					},

					"thirdperson_righthand": {
						"rotation": [{
								"x": 90
							},{
								"y": 0
							},{
								"z": -90
							}],

						"translation": [0.17,-0.12,0.24],

						"scale": 0.001
					},

					"gui": {
						"rotation": [{
								"x": -25
							},{
								"y": 75
							},{
								"z": 90
							}],

						"translation": [0,0,0],

						"scale": 0.0007
					},

					"fixed": {
						"rotation": [{
								"x": -90
							},{
								"y": 0
							},{
								"z": 0
							}],

						"scale": 0.001
					},

					"firstperson_righthand": {
						"rotation": [{
								"x": 90
							},{
								"y": 0
							},{
								"z": -90
							}],

						"translation": [0,-0.1,0],

						"scale": 0.001
					},

					"firstperson_lefthand": {
						"rotation": [{
								"x": 90
							},{
								"y": 0
							},{
								"z": -90
							}],

						"translation": [0,-0.1,0],

						"scale": 0.001
					},

					"ground": {
						"rotation": [{
								"x": 0
							},{
								"y": 0
							},{
								"z": 0
							}],

						"scale": 0.001
					}
				}
			}]
	}
}