{
  "result": {
    "item": "heroesexpansion:daredevil_homemade_legs"
  },
  "pattern": [
    "BLB",
    "L L",
    "B B"
  ],
  "conditions": [
    {
      "item": "heroesexpansion:daredevil_homemade_legs",
      "type": "minecraft:item_exists"
    },
    {
      "item": "minecraft:leather",
      "type": "minecraft:item_exists"
    },
    {
      "item": "lucraftcore:tri_polymer_black",
      "type": "minecraft:item_exists"
    }
  ],
  "type": "minecraft:crafting_shaped",
  "key": {
    "B": {
      "item": "lucraftcore:tri_polymer_black"
    },
    "L": {
      "item": "minecraft:leather"
    }
  },
  "group": "heroesexpansion:daredevil_1_suit"
}